!!!!!!!!BB!!!2
!!!!!!!!CC!!!2
!!!!!!!!BB!3!!
!!!!!!!!AA!3!!
rrrrrrrrAA!!!!
!!!!!!!!AA!!!!
!!!!!!!!BB!!!!
!!!!!!2!BB!!!!
!!!!!!2!AA!!!!
!!!!1!!qAA!!!!
!!!!1!wwCC!!!!
!!0!!uu!AA!!!!
!!0!ww!!BB!!!!
3!!vv!!!AA!!!!
3!uu!!!!CC!!!!
